<?xml version="1.0" encoding="UTF-8" standalone="no"?>
<!-- Created with Inkscape (http://www.inkscape.org/) -->

<svg
   xmlns:dc="http://purl.org/dc/elements/1.1/"
   xmlns:cc="http://creativecommons.org/ns#"
   xmlns:rdf="http://www.w3.org/1999/02/22-rdf-syntax-ns#"
   xmlns:svg="http://www.w3.org/2000/svg"
   xmlns="http://www.w3.org/2000/svg"
   xmlns:sodipodi="http://sodipodi.sourceforge.net/DTD/sodipodi-0.dtd"
   xmlns:inkscape="http://www.inkscape.org/namespaces/inkscape"
   width="48.799999"
   height="43.551178"
   id="svg3751"
   version="1.1"
   inkscape:version="0.48.4 r9939"
   sodipodi:docname="cart.svg">
  <defs
     id="defs3753" />
  <sodipodi:namedview
     id="base"
     pagecolor="#ffffff"
     bordercolor="#666666"
     borderopacity="1.0"
     inkscape:pageopacity="0.0"
     inkscape:pageshadow="2"
     inkscape:zoom="5.6568543"
     inkscape:cx="26.498364"
     inkscape:cy="5.1655479"
     inkscape:current-layer="layer1"
     showgrid="true"
     inkscape:document-units="px"
     inkscape:grid-bbox="true"
     inkscape:window-width="832"
     inkscape:window-height="853"
     inkscape:window-x="41"
     inkscape:window-y="24"
     inkscape:window-maximized="0"
     fit-margin-top="5"
     fit-margin-left="5"
     fit-margin-right="5"
     fit-margin-bottom="5" />
  <metadata
     id="metadata3756">
    <rdf:RDF>
      <cc:Work
         rdf:about="">
        <dc:format>image/svg+xml</dc:format>
        <dc:type
           rdf:resource="http://purl.org/dc/dcmitype/StillImage" />
        <dc:title />
      </cc:Work>
    </rdf:RDF>
  </metadata>
  <g
     id="layer1"
     inkscape:label="Layer 1"
     inkscape:groupmode="layer"
     transform="translate(2.1022712,-15.291043)">
    <g
       id="g3059"
       transform="matrix(0.68120931,0,0,0.68120931,0.92376897,17.164399)">
      <g
         style="fill:#999999"
         id="g2991"
         transform="matrix(0.02655157,0,0,-0.02655157,2.8977288,50.443619)">
        <path
           style="fill:#999999"
           inkscape:connector-curvature="0"
           id="path2993"
           d="M 640,0 Q 640,-53 602.5,-90.5 565,-128 512,-128 459,-128 421.5,-90.5 384,-53 384,0 384,53 421.5,90.5 459,128 512,128 565,128 602.5,90.5 640,53 640,0 z m 896,0 q 0,-53 -37.5,-90.5 -37.5,-37.5 -90.5,-37.5 -53,0 -90.5,37.5 Q 1280,-53 1280,0 q 0,53 37.5,90.5 37.5,37.5 90.5,37.5 53,0 90.5,-37.5 Q 1536,53 1536,0 z m 128,1088 V 576 q 0,-24 -16,-42.5 Q 1632,515 1607,512 L 563,390 q 1,-7 4.5,-21.5 3.5,-14.5 6,-26.5 2.5,-12 2.5,-22 0,-16 -24,-64 h 920 q 26,0 45,-19 19,-19 19,-45 0,-26 -19,-45 -19,-19 -45,-19 H 448 q -26,0 -45,19 -19,19 -19,45 0,14 11,39.5 11,25.5 29.5,59.5 18.5,34 20.5,38 L 268,1152 H 64 q -26,0 -45,19 -19,19 -19,45 0,26 19,45 19,19 45,19 h 256 q 16,0 28.5,-6.5 12.5,-6.5 20,-15.5 7.5,-9 13,-24.5 5.5,-15.5 7.5,-26.5 2,-11 5.5,-29.5 3.5,-18.5 4.5,-25.5 h 1201 q 26,0 45,-19 19,-19 19,-45 z" />
      </g>
      <text
         transform="scale(0.7836403,1.2760957)"
         sodipodi:linespacing="125%"
         id="text4032"
         y="26.447861"
         x="15.725438"
         style="font-size:31.34561348px;font-style:normal;font-variant:normal;font-weight:bold;font-stretch:normal;text-align:start;line-height:125%;letter-spacing:0px;word-spacing:0px;writing-mode:lr-tb;text-anchor:start;fill:#000000;fill-opacity:1;stroke:none;font-family:Sans;-inkscape-font-specification:Sans Bold"
         xml:space="preserve"><tspan
           y="26.447861"
           x="15.725438"
           id="tspan4034"
           sodipodi:role="line">&lt;/&gt;</tspan></text>
    </g>
  </g>
</svg>
