<?xml version="1.0" encoding="UTF-8" standalone="no"?>
<!-- Created with Inkscape (http://www.inkscape.org/) -->

<svg
   xmlns:dc="http://purl.org/dc/elements/1.1/"
   xmlns:cc="http://creativecommons.org/ns#"
   xmlns:rdf="http://www.w3.org/1999/02/22-rdf-syntax-ns#"
   xmlns:svg="http://www.w3.org/2000/svg"
   xmlns="http://www.w3.org/2000/svg"
   xmlns:sodipodi="http://sodipodi.sourceforge.net/DTD/sodipodi-0.dtd"
   xmlns:inkscape="http://www.inkscape.org/namespaces/inkscape"
   width="32px"
   height="32px"
   id="svg2996"
   version="1.1"
   inkscape:version="0.48.4 r9939"
   sodipodi:docname="zoom.svg">
  <defs
     id="defs2998" />
  <sodipodi:namedview
     id="base"
     pagecolor="#ffffff"
     bordercolor="#666666"
     borderopacity="1.0"
     inkscape:pageopacity="0.0"
     inkscape:pageshadow="2"
     inkscape:zoom="31.672167"
     inkscape:cx="8.2555883"
     inkscape:cy="17.537887"
     inkscape:current-layer="Search"
     showgrid="true"
     inkscape:grid-bbox="true"
     inkscape:document-units="px"
     inkscape:window-width="1879"
     inkscape:window-height="1056"
     inkscape:window-x="41"
     inkscape:window-y="24"
     inkscape:window-maximized="1" />
  <metadata
     id="metadata3001">
    <rdf:RDF>
      <cc:Work
         rdf:about="">
        <dc:format>image/svg+xml</dc:format>
        <dc:type
           rdf:resource="http://purl.org/dc/dcmitype/StillImage" />
        <dc:title />
      </cc:Work>
    </rdf:RDF>
  </metadata>
  <g
     id="layer1"
     inkscape:label="Layer 1"
     inkscape:groupmode="layer">
    <g
       transform="matrix(0.66667777,0,0,0.66667777,-364.98542,-316.32947)"
       id="Search">
      <path
         style="fill:#333333"
         inkscape:connector-curvature="0"
         d="m 591.775,515.452 -10.129,-10.127 c -0.762,-0.762 -1.918,-0.887 -2.822,-0.393 l -2.16,-2.16 c 1.84,-2.613 2.932,-5.791 2.932,-9.223 0,-8.857 -7.207,-16.063 -16.064,-16.063 -8.857,0 -16.063,7.205 -16.063,16.063 0,8.858 7.205,16.064 16.063,16.064 3.418,0 6.582,-1.08 9.188,-2.906 l 2.174,2.176 c -0.467,0.896 -0.336,2.029 0.414,2.781 l 10.129,10.127 c 0.924,0.926 2.439,0.926 3.363,0 l 2.977,-2.975 c 0.922,-0.924 0.922,-2.438 -0.002,-3.364 z m -28.244,-11.787 c -5.584,0 -10.113,-4.529 -10.113,-10.115 0,-5.584 4.529,-10.113 10.113,-10.113 5.586,0 10.115,4.529 10.115,10.113 0,5.586 -4.529,10.115 -10.115,10.115 z"
         id="path7502" />
      <g
         id="g3772"
         inkscape:transform-center-x="-0.31573463"
         transform="translate(-0.47359406,0.47359406)"
         style="fill:#333333;fill-opacity:1">
        <rect
           y="486.68179"
           x="562.2688"
           height="12.976477"
           width="3.3625178"
           id="rect3752"
           style="fill:#333333;fill-opacity:1" />
        <rect
           transform="matrix(0,-1,1,0,0,0)"
           y="557.46179"
           x="-494.85129"
           height="12.976477"
           width="3.3625178"
           id="rect3752-1"
           style="fill:#333333;fill-opacity:1" />
      </g>
    </g>
  </g>
</svg>
